…
``` r
library(tibble)
results <- tibble(sample_id = rownames(predict.filt$predict)) %>%
  bind_cols(as_tibble(predict.filt$predict))  %>%
  mutate(pl_pe_class = predict.filt$class$max.dist[,'comp1']) %>%
  janitor::clean_names() %>%
  rename(pl_pe_class_eope_dim1 = eope_dim1,
         pl_pe_class_npe_dim1 = non_pe_preterm_dim1) 
results
```

    ## # A tibble: 48 × 4
    ##    sample_id  pl_pe_class_eope_dim1 pl_pe_class_npe_dim1 pl_pe_class   
    ##    <chr>                      <dbl>                <dbl> <chr>         
    ##  1 GSM2589533                0.690                0.310  EOPE          
    ##  2 GSM2589535                0.955                0.0454 EOPE          
    ##  3 GSM2589536                2.25                -1.25   EOPE          
    ##  4 GSM2589538                1.05                -0.0506 EOPE          
    ##  5 GSM2589540                0.0520               0.948  Non-PE Preterm
    ##  6 GSM2589541                0.707                0.293  EOPE          
    ##  7 GSM2589545                0.781                0.219  EOPE          
    ##  8 GSM2589546                1.19                -0.195  EOPE          
    ##  9 GSM2589549                1.04                -0.0445 EOPE          
    ## 10 GSM2589552                0.328                0.672  Non-PE Preterm
    ## # … with 38 more rows
…
