predictPreeclampsia — predictPreeclampsia • planet
…
x_test <- eh[['EH8403']]
#> eoPredData not installed.
#>   Full functionality, documentation, and loading of data might not be possible without installing
#> downloading 1 resources
#> retrieving 1 resource
#> loading from cache
x_test %>% predictPreeclampsia()
#> eoPredData not installed.
#>   Full functionality, documentation, and loading of data might not be possible without installing
#> downloading 1 resources
#> retrieving 1 resource
#> loading from cache
#> 45 of 45 predictive CpGs present.
#> BMIQ normalization is recommended for best results. If choosing other method, it is recommended to compare results to predictions on BMIQ normalized data.
#> # A tibble: 49 × 4
#>    Sample_ID   EOPE `Non-PE Preterm` PE_Status   
#>    <chr>      <dbl>            <dbl> <chr>       
#>  1 GSM2589533 0.670            0.330 EOPE        
#>  2 GSM2589535 0.768            0.232 EOPE        
#>  3 GSM2589536 0.807            0.193 EOPE        
#>  4 GSM2589538 0.784            0.216 EOPE        
#>  5 GSM2589540 0.386            0.614 Normotensive
#>  6 GSM2589541 0.649            0.351 EOPE        
#>  7 GSM2589545 0.653            0.347 EOPE        
#>  8 GSM2589546 0.348            0.652 Normotensive
#>  9 GSM2589549 0.797            0.203 EOPE        
#> 10 GSM2589552 0.485            0.515 Normotensive
#> # ℹ 39 more rows
…
